﻿<?xml version='1.0' encoding='UTF-8' ?>
<svg xmlns='http://www.w3.org/2000/svg' width="1000" height="400">
<g transform="translate(-80,-160)">
    <line x1='200.0' y1='460.0' x2='920.0' y2='460.0' stroke='#000000' stroke-width='1'/>

	<rect x='490.9701414512361' y='267.0' width='120.48445439999995' height='20.0' fill='#333333' stroke='#000000' stroke-width='1'/>

	<polygon points='297.3388358706327,339.53456722393304,281.55106755063275,315.73067602393303,281.70658755063266,284.62667602393304,296.93572803063273,260.3910613039331,308.22274755063273,260.2877960239331,308.0883782706327,339.53456722393304' fill-rule='evenodd' fill='#333333' stroke='#000000' stroke-width='1'/>

	<rect x='217.19563866518916' y='187.377863582649' width='29.85983999999999' height='53.84102399999996' fill='#333333' stroke='#000000' stroke-width='1'/>

	<rect x='481.57104973022473' y='313.0' width='120.48445439999995' height='20.0' fill='#333333' stroke='#000000' stroke-width='1'/>

	<ellipse cx='293.28244100435427' cy='300.62654659082466' rx='7.348319999999973' ry='21.617280000000022' fill='#009999' stroke='#000000' stroke-width='1'/>

	<polygon points='217.22323478064519,238.20638252588085,220.4632347806452,232.80638252588088,220.5082347806452,206.7963825258809,217.2508867806453,197.69246652588092' fill-rule='evenodd' fill='#00CCCC' stroke='#000000' stroke-width='1'/>

	<rect x='479.34' y='257.63474082803975' width='29.214139701139516' height='2.956192707853404' fill='#333333' stroke='#000000' stroke-width='1'/>

	<rect x='292.6267447052861' y='276.0' width='461.2477083891789' height='48.0' fill='#CCCCCC' stroke='#000000' stroke-width='1'/>

	<rect x='479.33991142232725' y='339.7655009270969' width='29.214139701139516' height='2.956192707853404' fill='#333333' stroke='#000000' stroke-width='1'/>

	<polygon points='307.9774533822868,249.05231662277737,287.62859756868056,279.99999999999983,516.2345599098207,279.8544233105327,485.1722220943086,249.0' fill-rule='evenodd' fill='#666666' stroke='#000000' stroke-width='1'/>

	<polygon points='204.14903538942303,203.17265668563675,224.32965039400506,203.09177245716148,223.96567136586629,212.83832198843257' fill-rule='evenodd' fill='#666666' stroke='#000000' stroke-width='1'/>

	<polygon points='217.16905117839102,241.3434425697033,237.34966618297304,241.26255834122804,236.98568715483427,251.00910787249913' fill-rule='evenodd' fill='#666666' stroke='#000000' stroke-width='1'/>

	<line x1='160.0' y1='180.0' x2='160.0' y2='420.0' stroke='#000000' stroke-width='1'/>

	<polygon points='307.97785581360625,350.9476833772227,287.629,320.0,516.2349623411401,320.14557668946725,485.17262452562807,351.0' fill-rule='evenodd' fill='#666666' stroke='#000000' stroke-width='1'/>

	<rect x='204.33391567248177' y='185.20724110544154' width='16.718400000000003' height='17.755199999999974' fill='#333333' stroke='#000000' stroke-width='1'/>

	<polygon points='204.20431567248175,185.20724110544154,204.07471567248177,202.83284110544153,207.89791567248176,199.72244110544153,207.89791567248176,185.14244110544155' fill-rule='evenodd' fill='#00CCCC' stroke='#000000' stroke-width='1'/>

	<polygon points='200.0,179.83989197530863,240.02700617283952,260.3761574074074,460.42213254813214,260.34571704658794,399.7745913351623,179.84382144490164' fill-rule='evenodd' fill='#CCCCCC' stroke='#000000' stroke-width='1'/>

	<line x1='204.76779882096062' y1='180.02142791815845' x2='245.51371931707402' y2='259.8387790269834' stroke='#000000' stroke-width='1'/>

	<line x1='241.60657625580288' y1='250.90816631550646' x2='452.37673348310483' y2='250.90816631550646' stroke='#000000' stroke-width='1'/>

	<line x1='396.72844453392685' y1='180.12194137626602' x2='449.5918649562451' y2='250.79368075319096' stroke='#000000' stroke-width='1'/>

	<polygon points='447.26564445682163,242.76506789296087,454.37596193671106,245.1891165768398,464.91933173336736,260.3436330959894,460.41200732233443,260.3436330959894' fill-rule='evenodd' fill='#666666' stroke='#000000' stroke-width='1'/>

	<polygon points='221.54381322741636,212.56292745183313,233.38326272552843,196.75173417464921,233.36333322741638,179.98148745183315,204.90317322741637,179.90372745183316' fill-rule='evenodd' fill='#999999' stroke='#000000' stroke-width='1'/>

	<polygon points='209.48736068553416,184.59512128946824,208.92486068553416,187.84512128946824,214.98736068553416,199.68887128946824,217.76297441361888,200.15907560594547,220.54986068553416,198.65762128946824,220.92486068553416,196.03262128946824,215.01861068553416,184.56387128946824,211.92486068553416,183.31387128946824' fill-rule='evenodd' fill='#666666' stroke='#000000' stroke-width='1'/>

	<ellipse cx='212.7395670707323' cy='188.32107455349637' rx='1.8505848039461625' ry='1.6823498217692219' fill='#33FFFF' stroke='#000000' stroke-width='1'/>

	<ellipse cx='216.39929311174106' cy='194.99374712534217' rx='1.8505848039461625' ry='1.6823498217692219' fill='#33FFFF' stroke='#000000' stroke-width='1'/>

	<rect x='569.5339788883659' y='339.766' width='29.214139701139516' height='2.956192707853404' fill='#333333' stroke='#000000' stroke-width='1'/>

	<rect x='569.534' y='257.635' width='29.214139701139516' height='2.956192707853404' fill='#333333' stroke='#000000' stroke-width='1'/>

	<polygon points='212.1372466855341,183.1599092894683,214.20564420858054,182.37808908712586,218.0434966855341,183.5974092894683,223.1997466855341,193.4099092894683,222.64314420858054,197.28433908712586,220.58064420858054,198.65933908712586,220.9184966855341,196.0036592894683,215.0747466855341,184.5974092894683' fill-rule='evenodd' fill='#333333' stroke='#000000' stroke-width='1'/>

	<ellipse cx='753.6703386519489' cy='299.12621672106025' rx='10.711681493660958' ry='26.85139356735837' fill='#CCCCCC' stroke='#000000' stroke-width='1'/>

	<rect x='884.093126499045' y='189.27455318742352' width='13.436927999999966' height='25.474176' fill='#333333' stroke='#000000' stroke-width='1'/>

	<line x1='217.2199526366452' y1='237.6423075498812' x2='228.75810177168177' y2='237.6423075498812' stroke='#000000' stroke-width='1'/>

	<polygon points='580.111196754647,279.80503144654085,602.362749522647,249.0,779.7946963770469,249.19496855345915,759.4780612410469,280.0' fill-rule='evenodd' fill='#666666' stroke='#000000' stroke-width='1'/>

	<polygon points='919.5754783290888,179.61490891395525,839.3305742947848,259.85981294825916,619.9869080753664,259.6934522767488,679.8919579620864,179.8200524277889' fill-rule='evenodd' fill='#CCCCCC' stroke='#000000' stroke-width='1'/>

	<rect x='204.4346329216998' y='396.51771429765296' width='16.718400000000003' height='17.755199999999974' fill='#333333' stroke='#000000' stroke-width='1'/>

	<polygon points='204.44819686258535,396.4683254852012,224.62881186716737,396.5492134520062,224.2648328390286,386.8022134520062' fill-rule='evenodd' fill='#666666' stroke='#000000' stroke-width='1'/>

	<polygon points='217.26731200689474,357.0154902769791,237.44792701147676,357.0963782437841,237.083947983338,347.3493782437841' fill-rule='evenodd' fill='#666666' stroke='#000000' stroke-width='1'/>

	<rect x='217.196' y='357.12447732717646' width='29.85983999999999' height='53.84102399999996' fill='#333333' stroke='#000000' stroke-width='1'/>

	<polygon points='204.4694248377879,396.6181911485868,204.33982483778792,414.24379114858675,208.1630248377879,411.1333911485868,208.2138649784992,399.44529082155697' fill-rule='evenodd' fill='#00CCCC' stroke='#000000' stroke-width='1'/>

	<polygon points='217.25193239588666,400.853957213896,220.49193239588666,395.45395721389605,220.54356157617477,365.9957486937041,217.27958439588676,360.34004121389603' fill-rule='evenodd' fill='#00CCCC' stroke='#000000' stroke-width='1'/>

	<rect x='883.4567887164237' y='384.42046516912774' width='13.436927999999966' height='25.474176' fill='#333333' stroke='#000000' stroke-width='1'/>

	<polygon points='578.9776573716101,320.19496855345915,601.2292101396101,351.0,778.66115699401,350.8050314465409,758.34452185801,320.0' fill-rule='evenodd' fill='#666666' stroke='#000000' stroke-width='1'/>

	<polygon points='200.0,420.16,240.02700617283952,339.624,460.42213254813214,339.65444026049386,399.7745913351622,420.1560705433578' fill-rule='evenodd' fill='#CCCCCC' stroke='#000000' stroke-width='1'/>

	<polygon points='919.5755702537224,420.16,839.3306662194184,339.915,619.987,340.0813608704628,679.89204988672,419.9548562408331' fill-rule='evenodd' fill='#CCCCCC' stroke='#000000' stroke-width='1'/>

	<text x='108.90196808859157' y='290.3233265882814' font-size='23' fill='#000000'>24m</text>

	<text x='528.358130456705' y='473.4742955561768' font-size='23' fill='#000000'>72m</text>

	<polygon points='221.55229082883994,387.4139504284159,233.391740326952,403.22504688024424,233.37181082883995,419.99519090460643,204.91165082883995,420.07295042841594' fill-rule='evenodd' fill='#999999' stroke='#000000' stroke-width='1'/>

	<line x1='245.78513606429303' y1='340.01218705304973' x2='205.03913606429302' y2='419.82953816187467' stroke='#000000' stroke-width='1'/>

	<line x1='241.7529195286589' y1='349.10493756235195' x2='452.52307675596086' y2='349.10493756235195' stroke='#000000' stroke-width='1'/>

	<polygon points='209.83150110724674,415.3243830051269,209.26900110724674,412.0744224245687,215.33150110724674,400.23081607811133,218.10711483533146,399.76061746477006,220.89400110724674,401.2620535700193,221.26900110724674,403.8870217312394,215.36275110724674,415.35563262609384,212.26900110724674,416.6056174647701' fill-rule='evenodd' fill='#666666' stroke='#000000' stroke-width='1'/>

	<polygon points='212.5907216704466,416.79295147214447,214.65911919349304,417.57475966957014,218.4969716704466,416.35545818999475,223.6532216704466,406.5431088617798,223.09661919349304,402.66873855632645,221.03411919349304,401.2937596695702,221.3719716704466,403.9493986890351,215.5282216704466,415.35547354508117' fill-rule='evenodd' fill='#333333' stroke='#000000' stroke-width='1'/>

	<ellipse cx='216.71908955332034' cy='404.8705510325108' rx='1.8505848039461625' ry='1.6823498217692219' fill='#33FFFF' stroke='#000000' stroke-width='1'/>

	<ellipse cx='213.6440895533203' cy='411.39555103251075' rx='1.8505848039461625' ry='1.6823498217692219' fill='#33FFFF' stroke='#000000' stroke-width='1'/>

	<polygon points='643.3502318234375,319.809488705766,633.2255260067111,308.87502684912835,633.2252318234375,291.639488705766,643.4302238234376,280.212512705766,753.9824483194375,279.995169521766,753.9684983194377,320.060469521766' fill-rule='evenodd' fill='#FFFFFF' stroke='#000000' stroke-width='1'/>

	<line x1='396.728' y1='419.8815016611799' x2='449.59142042231827' y2='349.20950166117996' stroke='#000000' stroke-width='1'/>

	<polygon points='447.1778765677663,357.2460482497649,454.28819404765574,354.8219396082606,464.83156384431203,339.6670482497649,460.3242394332791,339.6670482497649' fill-rule='evenodd' fill='#666666' stroke='#000000' stroke-width='1'/>

	<line x1='508.72480282871965' y1='341.2312082502188' x2='569.1744398220038' y2='341.2312082502188' stroke='#000000' stroke-width='1'/>

	<line x1='217.43251505188672' y1='360.31721210989616' x2='229.42051505188672' y2='360.25241210989617' stroke='#000000' stroke-width='1'/>

	<line x1='508.7441447686993' y1='259.0429806488397' x2='569.1937817619835' y2='259.0429806488397' stroke='#000000' stroke-width='1'/>

	<polygon points='708.6869745056185,280.0104884241659,723.8069745056188,291.78248842416593,757.2869745056187,291.67448842416593,757.3409745056188,280.064488424166' fill-rule='evenodd' fill='#333333' stroke='#000000' stroke-width='1'/>

	<polygon points='708.687,320.07741706416607,723.8070000000002,308.3054170641661,757.2870000000001,308.4134170641661,757.3410000000002,320.023417064166' fill-rule='evenodd' fill='#333333' stroke='#000000' stroke-width='1'/>

	<polygon points='685.2792355722877,299.6661130551949,696.5954755722876,299.71708905519495,688.8561955722877,294.3006730551949' fill-rule='evenodd' fill='#666666' stroke='#000000' stroke-width='1'/>

	<polygon points='685.2277731351677,299.7832085454971,696.5440131351676,299.732236460635,688.8047331351677,305.148236460635' fill-rule='evenodd' fill='#666666' stroke='#000000' stroke-width='1'/>

	<ellipse cx='412.4079240591765' cy='300.0' rx='50.38847999999999' ry='12.0' fill='#333333' stroke='#000000' stroke-width='1'/>

	<line x1='754.031017887107' y1='305.9516415901808' x2='763.6110654832929' y2='305.9516415901808' stroke='#000000' stroke-width='1'/>

	<line x1='754.6776348092267' y1='294.8836400803479' x2='764.2576824054125' y2='294.8836400803479' stroke='#000000' stroke-width='1'/>

	<rect x='425.62950632031124' y='296.0' width='207.51991603199986' height='8.0' fill='#CCCCCC' stroke='#000000' stroke-width='1'/>

	<ellipse cx='661.2626154075742' cy='299.5629873379524' rx='10.769760000000003' ry='10.536479999999987' fill='#333333' stroke='#000000' stroke-width='1'/>

	<line x1='685.4331525551154' y1='299.75243442303724' x2='677.6571525551154' y2='299.75243442303724' stroke='#000000' stroke-width='1'/>

	<ellipse cx='680.6872068007478' cy='299.9798700000001' rx='10.0' ry='5.02711' fill='#009999' stroke='#000000' stroke-width='1'/>

	<polygon points='688.7764225333048,294.3218822894579,666.2994511976252,286.8137510191333,656.4174511976253,292.5378259712484,652.7454511976252,299.4499164794629,685.4068225333048,299.5707510191333' fill-rule='evenodd' fill='#666666' stroke='#000000' stroke-width='1'/>

	<polygon points='688.7502718293043,305.03894690329327,666.2733004936248,312.5469798607334,656.3913004936248,306.8229798607334,652.7193004936248,299.91097986073345,685.3806718293043,299.79014690329325' fill-rule='evenodd' fill='#666666' stroke='#000000' stroke-width='1'/>

	<circle cx='761.2412508497564' cy='269.824680640233' r='1.7495999999999867' fill='#009999' stroke='#000000' stroke-width='1'/>

	<circle cx='753.6238812497561' cy='264.8667030402329' r='1.7495999999999867' fill='#009999' stroke='#000000' stroke-width='1'/>

	<circle cx='750.522812449756' cy='275.0719254402332' r='1.7495999999999867' fill='#009999' stroke='#000000' stroke-width='1'/>

	<circle cx='750.1450755204762' cy='325.763169287913' r='1.7495999999999867' fill='#009999' stroke='#000000' stroke-width='1'/>

	<circle cx='753.3923331204762' cy='334.9450700879131' r='1.7495999999999867' fill='#009999' stroke='#000000' stroke-width='1'/>

	<circle cx='760.1107971204764' cy='329.68227328791295' r='1.7495999999999867' fill='#009999' stroke='#000000' stroke-width='1'/>

	<line x1='741.8057667301298' y1='320.37321296183256' x2='749.1960771301298' y2='339.9687329618326' stroke='#000000' stroke-width='1'/>

	<line x1='749.8337091301296' y1='260.03767376183276' x2='742.4437091301296' y2='279.6331937618328' stroke='#000000' stroke-width='1'/>

	<rect x='326.780521120324' y='292.0' width='59.77193471999998' height='16.0' fill='#666666' stroke='#000000' stroke-width='1'/>

	<ellipse cx='384.5768774649673' cy='299.76750696101465' rx='35.207438745599994' ry='12.867202252800013' fill='#333333' stroke='#000000' stroke-width='1'/>

	<rect x='363.4813828827609' y='292.27839999999986' width='25.66080000000003' height='15.598719999999997' fill='#999999' stroke='#000000' stroke-width='1'/>

	<polygon points='408.8407530843609,308.00822834459467,425.62075308436107,303.9269783445948,425.55825308436107,296.0519783445948,408.90200308436107,292.0832283445948' fill-rule='evenodd' fill='#999999' stroke='#000000' stroke-width='1'/>

	<polygon points='425.4142353365249,304.06979575152775,400.4066193365249,316.38697975152775,334.9015953365249,316.2936677515277,308.576486236964,307.90473063547023,408.8046993365249,307.80227575152776' fill-rule='evenodd' fill='#999999' stroke='#000000' stroke-width='1'/>

	<polygon points='425.553169992525,295.79243213947,400.545553992525,283.47543213947,335.040529992525,283.56874274553064,308.7154208929641,291.95755454362353,408.943633992525,292.06000789704575' fill-rule='evenodd' fill='#999999' stroke='#000000' stroke-width='1'/>

	<polygon points='336.74225010005705,250.88670116152778,354.801481332057,243.14703063352778,443.83448331605695,243.3052463135278,449.47208331605697,250.82204631352778' fill-rule='evenodd' fill='#999999' stroke='#000000' stroke-width='1'/>

	<polygon points='336.7850681152892,349.1150809999919,354.84429934728917,356.85508099999186,443.8773013312891,356.6968585848684,449.51490133128914,349.1797386003005' fill-rule='evenodd' fill='#999999' stroke='#000000' stroke-width='1'/>

	<line x1='415.3436496897178' y1='200.3209912201491' x2='664.4524802427967' y2='200.2304628355777' stroke='#000000' stroke-width='1'/>

	<line x1='415.60075152322634' y1='400.0266692601331' x2='664.5870273632262' y2='400.2954078201331' stroke='#000000' stroke-width='1'/>

	<polygon points='412.34634968971784,196.35859122014915,441.24714968971784,200.18179122014917,441.24714968971784,203.22739122014914,422.0015496897178,209.25379122014914' fill-rule='evenodd' fill='#333333' stroke='#000000' stroke-width='1'/>

	<polygon points='412.2893558354381,403.8238863682016,441.1901558354381,400.00074566468396,441.1901558354381,396.9551929008649,421.94455583543805,390.92888636820163' fill-rule='evenodd' fill='#333333' stroke='#000000' stroke-width='1'/>

	<line x1='414.7592000861702' y1='199.297886448253' x2='441.1967000861702' y2='202.891636448253' stroke='#000000' stroke-width='1'/>

	<line x1='415.0138863869703' y1='400.441141056253' x2='440.8111363869702' y2='397.05269105625285' stroke='#000000' stroke-width='1'/>

	<polygon points='919.3428099202636,420.2050908028214,902.5477258882636,415.35177125082134,843.4716422491778,348.4441918446881,839.3858484571778,340.1245457646879' fill-rule='evenodd' fill='#666666' stroke='#000000' stroke-width='1'/>

	<line x1='902.6271682575249' y1='415.3838267233204' x2='682.3690444815251' y2='415.3838267233204' stroke='#000000' stroke-width='1'/>

	<line x1='685.0067345170283' y1='419.8629787291614' x2='628.1685290770284' y2='340.31636496916144' stroke='#000000' stroke-width='1'/>

	<line x1='685.291255794059' y1='179.8297208492' x2='628.4530503540591' y2='259.37672084919996' stroke='#000000' stroke-width='1'/>

	<polygon points='919.4870887226912,179.7231018162159,902.6920046906912,184.57644894139645,843.6159210516054,251.48440846978278,839.5301272596054,259.8041018162158' fill-rule='evenodd' fill='#666666' stroke='#000000' stroke-width='1'/>

	<line x1='902.4520447259382' y1='184.6322289218338' x2='682.1939209499384' y2='184.6322289218338' stroke='#000000' stroke-width='1'/>

	<line x1='858.7333345535992' y1='365.42654902543353' x2='901.4702305535992' y2='365.42654902543353' stroke='#000000' stroke-width='1'/>

	<line x1='862.5591265535992' y1='370.0921490254335' x2='892.9788385535992' y2='369.9055250254335' stroke='#000000' stroke-width='1'/>

	<polygon points='896.908186716424,384.54412516912777,893.3844367164237,389.5166251691276,893.3394367164237,394.1066251691276,896.9844367164237,397.8416251691276' fill-rule='evenodd' fill='#00CCCC' stroke='#000000' stroke-width='1'/>

	<polygon points='896.9010155164239,384.44133276912777,878.3385155164239,378.91008276912777,883.6822655164239,384.44133276912777' fill-rule='evenodd' fill='#666666' stroke='#000000' stroke-width='1'/>

	<line x1='893.4371335164238' y1='389.50973676912776' x2='889.1246335164238' y2='389.54098676912776' stroke='#000000' stroke-width='1'/>

	<polygon points='897.5441906800103,214.81796248251317,894.02044068001,209.84564945374845,893.97544068001,205.25582204258095,897.62044068001,201.5209624825132' fill-rule='evenodd' fill='#00CCCC' stroke='#000000' stroke-width='1'/>

	<line x1='893.9862646131946' y1='209.87643743316914' x2='889.3362646131947' y2='209.87643743316914' stroke='#000000' stroke-width='1'/>

	<polygon points='897.689115581003,214.8861023865132,879.126615581003,220.4171023865132,884.470365581003,214.8861023865132' fill-rule='evenodd' fill='#666666' stroke='#000000' stroke-width='1'/>

	<line x1='864.6204568866874' y1='228.31263017584436' x2='906.0509848866874' y2='228.31263017584436' stroke='#000000' stroke-width='1'/>

	<line x1='896.3950591266876' y1='191.69326889584437' x2='917.6254053666876' y2='191.82763817584438' stroke='#000000' stroke-width='1'/>

	<polygon points='740.8942406141277,340.29809229396926,722.8349826634612,348.0380922939692,633.8018489549675,347.87986987884574,628.1642406141277,340.36274989427784' fill-rule='evenodd' fill='#999999' stroke='#000000' stroke-width='1'/>

	<polygon points='740.7232791112239,259.69225784167355,722.6640211605574,251.95225784167354,633.6308874520636,252.11048025679702,627.9932791112238,259.627600241365' fill-rule='evenodd' fill='#999999' stroke='#000000' stroke-width='1'/>

	<polygon points='875.8220979891759,214.71364289825488,844.7431718675439,193.0962923598927,839.1914570064878,184.89873021090574,902.4439659891757,184.6211468982549' fill-rule='evenodd' fill='#999999' stroke='#000000' stroke-width='1'/>

	<line x1='674.501395787877' y1='187.19955845188372' x2='679.847395787877' y2='187.14555845188372' stroke='#000000' stroke-width='1'/>

	<polygon points='685.6931457878769,184.5895584518837,689.4543957878772,179.82330845188378,685.2356457878772,179.85455845188378,681.7043957878772,184.76080845188378' fill-rule='evenodd' fill='#333333' stroke='#000000' stroke-width='1'/>

	<polygon points='685.6167583949045,415.407457299935,688.9972066852085,419.7863540984499,684.7784566852085,419.75510093389295,681.8667583949045,415.344957299935' fill-rule='evenodd' fill='#333333' stroke='#000000' stroke-width='1'/>

	<line x1='680.3355083949045' y1='413.313707299935' x2='675.0542583949045' y2='413.282457299935' stroke='#000000' stroke-width='1'/>

	<polygon points='839.4037139312376,184.85699265868064,843.8101139312375,179.67299265868064,919.1077139312375,179.67299265868064,902.5189139312375,184.72739265868063' fill-rule='evenodd' fill='#999999' stroke='#000000' stroke-width='1'/>

	<polygon points='839.0086426285711,415.3818739534403,843.1842877250006,420.06172539652755,918.4818877250005,420.06172539652755,902.3086426285711,415.3443739534403' fill-rule='evenodd' fill='#999999' stroke='#000000' stroke-width='1'/>

	<polygon points='875.8894302217425,385.3435635705411,844.8105041001105,406.9605578006108,839.2587892390544,415.1579848331612,902.5112982217423,415.4355635705411' fill-rule='evenodd' fill='#999999' stroke='#000000' stroke-width='1'/>

	<polygon points='886.5460747990719,189.9726063513766,887.1085747990719,193.2226063513766,881.0460747990719,205.0663563513766,878.2704610709873,205.53656066785385,875.4835747990719,204.0351063513766,875.1085747990719,201.4101063513766,881.0148247990719,189.9413563513766,884.1085747990719,188.6913563513766' fill-rule='evenodd' fill='#666666' stroke='#000000' stroke-width='1'/>

	<polygon points='883.8998808255893,188.4854333718542,881.8315767894366,187.70361316951178,877.9938977747419,188.9229333718542,872.8378808255893,198.7354333718542,873.3944581453688,202.60986316951178,875.4568649250298,203.98486316951178,875.1190277182446,201.3291833718542,880.9625135939509,189.9229333718542' fill-rule='evenodd' fill='#333333' stroke='#000000' stroke-width='1'/>

	<ellipse cx='883.051146938602' cy='193.86992375497368' rx='1.8505848039461625' ry='1.6823498217692219' fill='#33FFFF' stroke='#000000' stroke-width='1'/>

	<ellipse cx='879.7661469386021' cy='200.4399237549738' rx='1.8505848039461625' ry='1.6823498217692219' fill='#33FFFF' stroke='#000000' stroke-width='1'/>

	<line x1='872.8777821346561' y1='198.65209393320453' x2='875.202782134656' y2='200.97709393320451' stroke='#000000' stroke-width='1'/>

	<line x1='877.977782134656' y1='189.05209393320453' x2='880.977782134656' y2='189.87709393320452' stroke='#000000' stroke-width='1'/>

	<line x1='215.08309553075273' y1='184.6879696104655' x2='217.64559553075273' y2='183.9379696104655' stroke='#000000' stroke-width='1'/>

	<line x1='220.77059553075273' y1='195.7504696104655' x2='222.98934553075273' y2='193.4692196104655' stroke='#000000' stroke-width='1'/>

	<line x1='215.32287528115273' y1='415.2586866184653' x2='218.33787528115275' y2='416.0236866184653' stroke='#000000' stroke-width='1'/>

	<line x1='221.26287528115273' y1='404.0986866184653' x2='223.42287528115276' y2='406.2586866184653' stroke='#000000' stroke-width='1'/>

	<polygon points='887.5730087999999,410.74642862757986,888.1355087999999,407.49646804702166,882.0730087999999,395.65286170056436,879.2973950719153,395.18266308722303,876.5105087999999,396.6840991924722,876.1355087999999,399.30906735369234,882.0417587999999,410.77767824854675,885.1355087999999,412.027663087223' fill-rule='evenodd' fill='#666666' stroke='#000000' stroke-width='1'/>

	<polygon points='884.7888890593299,412.1700278407529,882.7205850231771,412.95183603817856,878.8829060084825,411.73253455860316,873.7268890593299,401.9201852303882,874.2834663791094,398.0458149249348,876.3458731587704,396.67083603817855,876.0080359519852,399.32647505764345,881.8515218276915,410.7325499136895' fill-rule='evenodd' fill='#333333' stroke='#000000' stroke-width='1'/>

	<line x1='873.7888890593304' y1='401.90228603817866' x2='875.9451390593304' y2='399.68353603817866' stroke='#000000' stroke-width='1'/>

	<line x1='878.8823890593304' y1='411.62403603817864' x2='881.8511390593304' y2='410.49903603817864' stroke='#000000' stroke-width='1'/>

	<ellipse cx='880.4221922180927' cy='400.11852218929187' rx='1.8505848039461625' ry='1.6823498217692219' fill='#33FFFF' stroke='#000000' stroke-width='1'/>

	<ellipse cx='883.6117645332286' cy='406.29050946519595' rx='1.8505848039461625' ry='1.6823498217692219' fill='#33FFFF' stroke='#000000' stroke-width='1'/>

	<rect x='525.3022392894525' y='295.97831939386833' width='62.920799999999986' height='7.7760000000000105' fill='#666666' stroke='#000000' stroke-width='1'/>

	<rect x='529.0207077127233' y='297.77060839952543' width='49.90499999999997' height='4.0499999999999545' fill='#333333' stroke='#000000' stroke-width='1'/>

	<polygon points='529.2045884261955,297.7534186790265,535.4545884261955,297.7846686790265,538.9545884261955,301.7846686790265,532.7670884261955,301.7534186790265' fill-rule='evenodd' fill='#FFFF00' stroke='#000000' stroke-width='1'/>

	<polygon points='542.2820312261955,297.7496686790265,548.5320312261955,297.7809186790265,552.0320312261955,301.7809186790265,545.8445312261955,301.7496686790265' fill-rule='evenodd' fill='#FFFF00' stroke='#000000' stroke-width='1'/>

	<polygon points='555.4382812261955,297.7809186790265,561.6882812261955,297.8121686790265,565.1882812261955,301.8121686790265,559.0007812261955,301.7809186790265' fill-rule='evenodd' fill='#FFFF00' stroke='#000000' stroke-width='1'/>

	<polygon points='567.9794012261954,297.75190867902654,574.2294012261954,297.78315867902654,577.7294012261954,301.78315867902654,571.5419012261954,301.75190867902654' fill-rule='evenodd' fill='#FFFF00' stroke='#000000' stroke-width='1'/>
    </g>
</svg>